Анализ данных Барометра Центральной Азии
…
Прежде чем заниматься программированием или статистическим анализом, первым шагом в работе с реальными данными является понимание их структуры и смысла. Нам нужно знать, какие данные были собраны, как они организованы, и подумать, на какие вопросы они могут ответить. Только тогда мы сможем понять, как правильно приступить к их анализу.

Для CA Barometer это означает изучение Анкеты (для опроса 2022 года) и Отчета о методах за этот год.

5 Загрузка и импорт данных

Мы загружаем данные из Центральноазиатского барометра по адресу https://ca-barometer.org/assets/files/projects/cab-survey-wave-12-excel-kyrgyzstan-kyrgyzstan-2022-autumn.xlsx

Code

download.file("https://ca-barometer.org/assets/files/projects/cab-survey-wave-12-excel-kyrgyzstan-kyrgyzstan-2022-autumn.xlsx", "CAB_2022.csv")
mydata <- read_excel("CAB_2022.csv")
mydata

# A tibble: 1,518 × 158
      MM1  MM2b  MM3a MM3b  MM4          MM5 MM6      MM7 MM8                
    <dbl> <dbl> <dbl> <chr> <chr>      <dbl> <chr>  <dbl> <dttm>             
 1 100017   778     6 CATI  Kyrgyzstan   329 Female     1 2022-11-01 00:00:00
 2 100028   771     6 CATI  Kyrgyzstan   163 Female     1 2022-11-01 00:00:00
 3 100035   505     6 CATI  Kyrgyzstan   329 Female     1 2022-11-01 00:00:00
 4 100036   509     6 CATI  Kyrgyzstan   311 Female     1 2022-11-01 00:00:00
 5 100048   706     6 CATI  Kyrgyzstan   329 Female     1 2022-11-01 00:00:00
 6 100054   504     6 CATI  Kyrgyzstan   329 Female     1 2022-11-01 00:00:00
 7 100085   502     6 CATI  Kyrgyzstan   210 Female     1 2022-11-01 00:00:00
 8 100086   708     6 CATI  Kyrgyzstan   251 Female     1 2022-11-01 00:00:00
 9 100087   500     6 CATI  Kyrgyzstan   329 Female     1 2022-11-01 00:00:00
10 100099   553     6 CATI  Kyrgyzstan   329 Female     1 2022-11-01 00:00:00
# ℹ 1,508 more rows
# ℹ 149 more variables: MM9 <dttm>, MM10 <chr>, MM11 <chr>, MM12 <dttm>,
#   MM13 <dttm>, MM14 <chr>, A1a <chr>, A1b <chr>, A2 <chr>, A3a <chr>,
#   A3b <chr>, A4a <chr>, A4b <chr>, A4c <chr>, A4d <chr>, A4e <chr>,
#   A4f <chr>, A5a <chr>, A5b <chr>, A5c <chr>, A5d <chr>, A6 <chr>, A7 <chr>,
#   B1 <chr>, B2 <chr>, B3 <chr>, B4a <chr>, B4b <chr>, B5a <chr>, B5b <chr>,
#   B6a <chr>, B6b <chr>, B6c <chr>, B6d <chr>, B6e <chr>, B7 <chr>, …
…
