Data Analysis 1
…
# "." notation in base R, "_" notation in tidyverse

as.data.frame(mydata)

  sex age height
1   M  22    170
2   F  33    180
3   M  44    190
4   F  55    200

Code

as_tibble(iris)

# A tibble: 150 × 5
   Sepal.Length Sepal.Width Petal.Length Petal.Width Species
          <dbl>       <dbl>        <dbl>       <dbl> <fct>  
 1          5.1         3.5          1.4         0.2 setosa 
 2          4.9         3            1.4         0.2 setosa 
 3          4.7         3.2          1.3         0.2 setosa 
 4          4.6         3.1          1.5         0.2 setosa 
 5          5           3.6          1.4         0.2 setosa 
 6          5.4         3.9          1.7         0.4 setosa 
 7          4.6         3.4          1.4         0.3 setosa 
 8          5           3.4          1.5         0.2 setosa 
 9          4.4         2.9          1.4         0.2 setosa 
10          4.9         3.1          1.5         0.1 setosa 
# ℹ 140 more rows
…
attach(gender_data2023wide)

7.2 select

select() picks variables based on their names. There are several flexible methods for choosing matching names. Here our hypothetical research chooses only the variables beginning with GDP (not case-sensitive).

Code

gender_gdp <-
  select(gender_data2023wide, c(`Country Name`,starts_with("GDP")))

gender_gdp

# A tibble: 248 × 6
   `Country Name`                     `GDP (current US$)` GDP growth (annual %…¹
   <chr>                                            <dbl>                  <dbl>
 1 Africa Eastern and Southern                    1.13e12                  1.89 
 2 Africa Western and Central                     8.15e11                  3.36 
 3 Arab World                                     3.61e12                  1.50 
 4 Caribbean small states                         7.95e10                  9.01 
 5 Central Europe and the Baltics                 2.27e12                  0.763
 6 Early-demographic dividend                     1.51e13                  4.61 
 7 East Asia & Pacific                            3.13e13                  4.19 
 8 East Asia & Pacific (excluding hi…             2.16e13                  5.25 
 9 East Asia & Pacific (IDA & IBRD)               2.16e13                  5.25 
10 Euro area                                      1.58e13                  0.419
# ℹ 238 more rows
# ℹ abbreviated name: ¹​`GDP growth (annual %)`
# ℹ 3 more variables: `GDP per capita (constant 2015 US$)` <dbl>,
#   `GDP per capita (Current US$)` <dbl>, gdp_ratio <dbl>
…
Code

glance(regoutput)

# A tibble: 1 × 12
  r.squared adj.r.squared  sigma statistic  p.value    df logLik   AIC   BIC
      <dbl>         <dbl>  <dbl>     <dbl>    <dbl> <dbl>  <dbl> <dbl> <dbl>
1     0.194         0.191 22023.      59.1 3.60e-13     1 -2819. 5645. 5655.
# ℹ 3 more variables: deviance <dbl>, df.residual <int>, nobs <int>

Code

augment(regoutput)

# A tibble: 247 × 9
   .rownames GDP per capita (constant 2…¹ Fertility rate, tota…² .fitted  .resid
   <chr>                            <dbl>                  <dbl>   <dbl>   <dbl>
 1 1                                1413.                   4.22    230.   1183.
 2 2                                1842.                   4.50  -2220.   4062.
 3 3                                6321.                   3.09  10373.  -4052.
 4 4                               16395.                   1.83  21625.  -5230.
 5 5                               16514.                   1.41  25422.  -8907.
 6 6                                3878.                   2.30  17453. -13575.
 7 7                               12738.                   1.34  26063. -13325.
 8 8                                9665.                   1.36  25832. -16166.
 9 9                                9774.                   1.36  25878. -16104.
10 10                              37909.                   1.38  25694.  12214.
# ℹ 237 more rows
# ℹ abbreviated names: ¹​`GDP per capita (constant 2015 US$)`,
#   ²​`Fertility rate, total (births per woman)`
# ℹ 4 more variables: .hat <dbl>, .sigma <dbl>, .cooksd <dbl>, .std.resid <dbl>
…
# A tibble: 2 × 17
# Groups:   hi_ratio [2]
  hi_ratio data     fit    tidied   r.squared adj.r.squared  sigma statistic
  <lgl>    <list>   <list> <list>       <dbl>         <dbl>  <dbl>     <dbl>
1 FALSE    <tibble> <lm>   <tibble>   0.441          0.437   2295.   121.   
2 TRUE     <tibble> <lm>   <tibble>   0.00117       -0.0101 30174.     0.104
# ℹ 9 more variables: p.value <dbl>, df <dbl>, logLik <dbl>, AIC <dbl>,
#   BIC <dbl>, deviance <dbl>, df.residual <int>, nobs <int>, augmented <list>

Code

regressions |>
  unnest(augmented)

# A tibble: 247 × 14
# Groups:   hi_ratio [2]
   hi_ratio data     fit    tidied           glanced  GDP per capita (constant…¹
   <lgl>    <list>   <list> <list>           <list>                        <dbl>
 1 FALSE    <tibble> <lm>   <tibble [2 × 5]> <tibble>                      1413.
 2 FALSE    <tibble> <lm>   <tibble [2 × 5]> <tibble>                      1842.
 3 FALSE    <tibble> <lm>   <tibble [2 × 5]> <tibble>                      6321.
 4 FALSE    <tibble> <lm>   <tibble [2 × 5]> <tibble>                      3878.
 5 FALSE    <tibble> <lm>   <tibble [2 × 5]> <tibble>                      9665.
 6 FALSE    <tibble> <lm>   <tibble [2 × 5]> <tibble>                      9774.
 7 FALSE    <tibble> <lm>   <tibble [2 × 5]> <tibble>                      8270.
 8 FALSE    <tibble> <lm>   <tibble [2 × 5]> <tibble>                     10043.
 9 FALSE    <tibble> <lm>   <tibble [2 × 5]> <tibble>                      1693.
10 FALSE    <tibble> <lm>   <tibble [2 × 5]> <tibble>                       998.
# ℹ 237 more rows
# ℹ abbreviated name: ¹​`GDP per capita (constant 2015 US$)`
# ℹ 8 more variables: `Fertility rate, total (births per woman)` <dbl>,
#   .fitted <dbl>, .resid <dbl>, .hat <dbl>, .sigma <dbl>, .cooksd <dbl>,
#   .std.resid <dbl>, .rownames <chr>
…
